%YAML 1.1
%TAG !u! tag:unity3d.com,2011:
--- !u!1 &1343328475902582783
GameObject:
  m_ObjectHideFlags: 0
  m_CorrespondingSourceObject: {fileID: 0}
  m_PrefabInstance: {fileID: 0}
  m_PrefabAsset: {fileID: 0}
  serializedVersion: 6
  m_Component:
  - component: {fileID: 1343328475902582780}
  - component: {fileID: 1343328475902582781}
  - component: {fileID: 1343328475902582782}
  m_Layer: 0
  m_Name: Obstacle 1
  m_TagString: Untagged
  m_Icon: {fileID: 0}
  m_NavMeshLayer: 0
  m_StaticEditorFlags: 0
  m_IsActive: 1
--- !u!4 &1343328475902582780
Transform:
  m_ObjectHideFlags: 0
  m_CorrespondingSourceObject: {fileID: 0}
  m_PrefabInstance: {fileID: 0}
  m_PrefabAsset: {fileID: 0}
  m_GameObject: {fileID: 1343328475902582783}
  m_LocalRotation: {x: 0, y: 0, z: 0, w: 1}
  m_LocalPosition: {x: 0, y: 0, z: 0}
  m_LocalScale: {x: 1, y: 1, z: 1}
  m_Children:
  - {fileID: 1343328476115958638}
  m_Father: {fileID: 0}
  m_RootOrder: 0
  m_LocalEulerAnglesHint: {x: 0, y: 0, z: 0}
--- !u!54 &1343328475902582781
Rigidbody:
  m_ObjectHideFlags: 0
  m_CorrespondingSourceObject: {fileID: 0}
  m_PrefabInstance: {fileID: 0}
  m_PrefabAsset: {fileID: 0}
  m_GameObject: {fileID: 1343328475902582783}
  serializedVersion: 2
  m_Mass: 1
  m_Drag: 0
  m_AngularDrag: 0.05
  m_UseGravity: 0
  m_IsKinematic: 1
  m_Interpolate: 0
  m_Constraints: 0
  m_CollisionDetection: 0
--- !u!114 &1343328475902582782
MonoBehaviour:
  m_ObjectHideFlags: 0
  m_CorrespondingSourceObject: {fileID: 0}
  m_PrefabInstance: {fileID: 0}
  m_PrefabAsset: {fileID: 0}
  m_GameObject: {fileID: 1343328475902582783}
  m_Enabled: 1
  m_EditorHideFlags: 0
  m_Script: {fileID: 11500000, guid: 2296a78fbc28c6048b796a409ffcdcda, type: 3}
  m_Name: 
  m_EditorClassIdentifier: 
  speed: 100
--- !u!1001 &6179234587141751820
PrefabInstance:
  m_ObjectHideFlags: 0
  serializedVersion: 2
  m_Modification:
    m_TransformParent: {fileID: 1343328475902582780}
    m_Modifications:
    - target: {fileID: 5144653662234787683, guid: 80eb0d5691c0e6147a10dbf41c852cc2,
        type: 3}
      propertyPath: m_Name
      value: obstacle block
      objectReference: {fileID: 0}
    - target: {fileID: 5144653662234787682, guid: 80eb0d5691c0e6147a10dbf41c852cc2,
        type: 3}
      propertyPath: m_LocalPosition.x
      value: 0
      objectReference: {fileID: 0}
    - target: {fileID: 5144653662234787682, guid: 80eb0d5691c0e6147a10dbf41c852cc2,
        type: 3}
      propertyPath: m_LocalPosition.y
      value: -0.0325
      objectReference: {fileID: 0}
    - target: {fileID: 5144653662234787682, guid: 80eb0d5691c0e6147a10dbf41c852cc2,
        type: 3}
      propertyPath: m_LocalPosition.z
      value: 0.6388
      objectReference: {fileID: 0}
    - target: {fileID: 5144653662234787682, guid: 80eb0d5691c0e6147a10dbf41c852cc2,
        type: 3}
      propertyPath: m_LocalRotation.x
      value: 0
      objectReference: {fileID: 0}
    - target: {fileID: 5144653662234787682, guid: 80eb0d5691c0e6147a10dbf41c852cc2,
        type: 3}
      propertyPath: m_LocalRotation.y
      value: 0
      objectReference: {fileID: 0}
    - target: {fileID: 5144653662234787682, guid: 80eb0d5691c0e6147a10dbf41c852cc2,
        type: 3}
      propertyPath: m_LocalRotation.z
      value: 0
      objectReference: {fileID: 0}
    - target: {fileID: 5144653662234787682, guid: 80eb0d5691c0e6147a10dbf41c852cc2,
        type: 3}
      propertyPath: m_LocalRotation.w
      value: 1
      objectReference: {fileID: 0}
    - target: {fileID: 5144653662234787682, guid: 80eb0d5691c0e6147a10dbf41c852cc2,
        type: 3}
      propertyPath: m_RootOrder
      value: 0
      objectReference: {fileID: 0}
    - target: {fileID: 5144653662234787682, guid: 80eb0d5691c0e6147a10dbf41c852cc2,
        type: 3}
      propertyPath: m_LocalEulerAnglesHint.x
      value: 0
      objectReference: {fileID: 0}
    - target: {fileID: 5144653662234787682, guid: 80eb0d5691c0e6147a10dbf41c852cc2,
        type: 3}
      propertyPath: m_LocalEulerAnglesHint.y
      value: 0
      objectReference: {fileID: 0}
    - target: {fileID: 5144653662234787682, guid: 80eb0d5691c0e6147a10dbf41c852cc2,
        type: 3}
      propertyPath: m_LocalEulerAnglesHint.z
      value: 0
      objectReference: {fileID: 0}
    - target: {fileID: 5144653662234787682, guid: 80eb0d5691c0e6147a10dbf41c852cc2,
        type: 3}
      propertyPath: m_LocalScale.y
      value: 0.4626
      objectReference: {fileID: 0}
    m_RemovedComponents: []
  m_SourcePrefab: {fileID: 100100000, guid: 80eb0d5691c0e6147a10dbf41c852cc2, type: 3}
--- !u!4 &1343328476115958638 stripped
Transform:
  m_CorrespondingSourceObject: {fileID: 5144653662234787682, guid: 80eb0d5691c0e6147a10dbf41c852cc2,
    type: 3}
  m_PrefabInstance: {fileID: 6179234587141751820}
  m_PrefabAsset: {fileID: 0}
